[
"enode://f98321f00a4e337d31c4e348e2870e3a475a138ab63f53594c8c758c8cc3adb27fae2bd90317de3c39b81bb64cf55d0994bf1bdae3a50ba9535a7965e7f298f9@10.0.0.3:30303?discport=0",
"enode://f3f376e9e48a9bb79e1fe8eae6ab3480fe0cc512fec97c1ae06d323bba5c8b322b38407f670765712be193b10f571617bc705b9f8bd5c789a260f5636ec1bb02@10.0.0.4:30303?discport=0"
]
