[
"enode://ac6b1096ca56b9f6d004b779ae3728bf83f8e22453404cc3cef16a3d9b96608bc67c4b30db88e0a5a6c6390213f7acbe1153ff6d23ce57380104288ae19373ef@127.0.0.1:9000?discport=0&&raftport=50400",
"enode://0ba6b9f606a43a95edc6247cdb1c1e105145817be7bcafd6b2c0ba15d58145f0dc1a194f70ba73cd6f4cdd6864edc7687f311254c7555cc32e4d45aeb1b80416@127.0.0.1:9000?discport=0&&raftport=50400",
"enode://579f786d4e2830bbcc02815a27e8a9bacccc9605df4dc6f20bcc1a6eb391e7225fff7cb83e5b4ecd1f3a94d8b733803f2f66b7e871961e7b029e22c155c3a778@127.0.0.1:9000?discport=0&&raftport=50400",
"enode://3d9ca5956b38557aba991e31cf510d4df641dce9cc26bfeb7de082f0c07abb6ede3a58410c8f249dabeecee4ad3979929ac4c7c496ad20b8cfdd061b7401b4f5@127.0.0.1:9000?discport=0&&raftport=50400",
"enode://3701f007bfa4cb26512d7df18e6bbd202e8484a6e11d387af6e482b525fa25542d46ff9c99db87bd419b980c24a086117a397f6d8f88e74351b41693880ea0cb@127.0.0.1:9000?discport=0&&raftport=50400",
"enode://eacaa74c4b0e7a9e12d2fe5fee6595eda841d6d992c35dbbcc50fcee4aa86dfbbdeff7dc7e72c2305d5a62257f82737a8cffc80474c15c611c037f52db1a3a7b@127.0.0.1:9000?discport=0&&raftport=50400",
"enode://239c1f044a2b03b6c4713109af036b775c5418fe4ca63b04b1ce00124af00ddab7cc088fc46020cdc783b6207efe624551be4c06a994993d8d70f684688fb7cf@127.0.0.1:9000?discport=0&&raftport=50400",
"enode://7a8cdbef6e19170e852f09a7ac18defd2d86cc7952f42ef152280fc22e5cb48c5fdd802b8dbb4b5d9a40177702ff565ec269afdfd65bc0b1a8a4dbabe8503d16@127.0.0.1:9000?discport=0&&raftport=50400",
"enode://83358aae86bc310ed9931a8ddc1a859c01f3cc5275247c6e5995edcfa3fcb84ec7d4ca04f03b004fb2d3871577d0ae5d8ca97892eb436697f465afb5950e5c02@127.0.0.1:9000?discport=0&&raftport=50400",
"enode://c653fcda464d31cc0f5fbd26255ac72c3e91bfd0a1dfe33ebd9d31aa21853136c29af03117e2b8622a0a413e253fdc57036380b1354ca4874b3e40862208ee2e@127.0.0.1:9000?discport=0&&raftport=50400",
"enode://a9890e4372619e482ffaf2a0afcd7846b33b3f65f2c9feb97e9bde38d525ab989d69df577f6ce71926a3e8b6134b401f733fb325d47ac2d847a09d81306131d6@127.0.0.1:9000?discport=0&&raftport=50400",
"enode://aaa4e57daa7cd2fd6c27d2f46089de2622a26ce667903f8a7e20254069eb529c158a79b925e57eae0b933af211e0320a1fc15bf3a8dafb029c6b410183f4cb33@127.0.0.1:9000?discport=0&&raftport=50400",
"enode://f3d842403269c72e2f4565bc75dac6b5b1b6ad895617c67aff474442fd9feb02474be100c96dddb3c989f41f8a858f49a9aa2bc472cfdf66464843b18db3c8cf@127.0.0.1:9000?discport=0&&raftport=50400",
"enode://07a9c9e825def4b301b59b135ada8ee6d3c95ba338d75dd69d58908e7ef8bd70361764a6104c48da7aa8f867e6cb541263402830236d096cf9b8319a5298c5a5@127.0.0.1:9000?discport=0&&raftport=50400",
"enode://b7936ffef32415d13eca8d6fe0415a00b5a87f4cb0867cb667c79e353dd14343214ab9ba7a007f814175c46276b567a904ae504de01b7dee1688a30e77be8eff@127.0.0.1:9000?discport=0&&raftport=50400",
"enode://07b19411e48c69da025fa5a3f5ade33deadf4d8aacff643fd4ea2bd4404a02813bb93f2b80bc760a6323d1a6854d70c900d36cf7cdbc084f718607d1a1feddfe@127.0.0.1:9000?discport=0&&raftport=50400"
]
