[
"enode://2917aa10836a19e3cb3c5132f1f68cd6096856080bb2d4b2a4ab9ee67a53d8c9e601022b640e6d38b1634afbcb68e7525d168ab27290180cb7267ec2db2927c7@128.110.153.174:30303?discport=0",
"enode://63bace01b9254964146ed146bc4340c316e43d6c052e5c0d32bfb45aef75cc52a7e6d9a22e0e8519eb68e7180535c794e5b2d33fc58a69ab548fae57e15adbf0@128.110.153.214:30303?discport=0",
"enode://8c5ba5fffa38f03040ed7f030b57d834e086e4fd67a34fd6ec294fdf5b6ba2f3f1e524df5e7cbad390371c2d598f2ef1e20b2d5d14071cd2e4cd818f270d746c@128.110.153.210:30303?discport=0",
"enode://92240db6392762514a12348ea4bafc4fe046468f8f1b4a7707f67227d43b7d91deba1d142d3a70f2bc6807ee6f2468615a499fc055dec102d5a337d14a095efb@128.110.153.185:30303?discport=0"
]
